<svg xmlns="http://www.w3.org/2000/svg" xmlns:xlink="http://www.w3.org/1999/xlink" width="48" height="60"
     viewBox="0 0 48 60">
    <image overflow="visible" opacity=".55" width="143" height="202"
           xlink:href="data:image/png;base64,iVBORw0KGgoAAAANSUhEUgAAAJYAAADQCAYAAADlAJiTAAAACXBIWXMAAC4jAAAuIwF4pT92AAAA GXRFWHRTb2Z0d2FyZQBBZG9iZSBJbWFnZVJlYWR5ccllPAAADmBJREFUeNrs3Ytu47gOBmDJTtK+ /9PONIm1WKDB0fLwJluSL/oFGElv09T5hqRpWwoBAwMDAwMDAwMDAwMDAwMDAwMDAwMDAwMDAwNj xBGxC075niTAwujxHiTAwvDs97gBUQIsgGoZsRJgjQcqVnwfUuHHgHVxUJ7nHkye592BAVaffcs9 lx5LaqxkPFrYAOsCUYp79CCTYHGPHmhdgAFW/ygVhY89uCRMSfjcbtELsNqikqKTtXlgWZsVxZri Aqw+qY9u0wpcHlSLA1oXXIDVDlU0UE0GNC+sRXjksHXDBVh9UE3MI/e8FFaOSXq+Cy7A6oOKIuI2 LSUGI/Utxka/vzmuG4w0QyVhmguBBSFScajezM+F7Pum7Ocieaw6AGs7KgpLi04zgcU9z/+NYMD6 YPo8jxmu/DUtvx8v2dc4XNWQAVZ7VDNBpX1MIxcHi6Kafx/zaPUWWhUxi1pBwFQFF2C1R6VtNwYY TYk0neWoPttk1Gd5/bQwuEKonBIBqw0qGpVuDKh843BpsN5ke/3+zEtARQvzRYBXLSUCVhtUUmTK Md0JrFshrBdBpRX9HCALHyLWgVFRUPfs8S5ELgvWJ0rdMlSTIwXSLnwg7QdaY22KWoDVFhWNUNzG pUQKKzGwXgzEoBxJTuRjCyIi1sFQcVEq3x7kUYpaFBatr56/3xsdqKRziFGITJujFmDVR5XD4jA9 DFwWrFcWrZ7ORupCjga9R5CIWAdCxUWqHNQXA+vuhPXOYD2D75SPF1dS9ksCrGOhegiovgiqHBeF lRhYT6auSkzKnLMGKj0LQFsOVRulgNUeVY6JwpIi1kxeV54GZ4JKik5vAZR0sjsZbQrA2hlVnuYo pm8G1kNJhTmct/C1RThalJquU5CvaEUf68CoaOrLt2+C6oukQtpuoGlQQqX1tyRUUdgHqUaddQOq JqholOJgfTERi0uDKfz3JHMQ6i7ufKM3DVptB0Ssg6CSItU3SY8PpXDP66vP6wgkWlmgYvDfvFF1 3ICqKapv4TFPg4/s35uEdJenxiXIl9p4QIWWoEaEtQcqLlJ9Me2GHFb+uj71E4dMq5u0qNTlcvQb UDVFxdVXXwVHg5/npakt9ohKo8PaG5UnWuVFe340+AHmuRY+fy7dVwhYF0D1rbQZtGiVH/Fp5/K0 0zfWzavNsd2AqimqbyZSPYxOO0UVgu9GCvp5L64EWOdBJaU/q2BPzOtPDKS3sUnoPHM80MgIWCdC dWfqKu5NlW6eKN04YBweCdLwVzccGdUj+zdnoRnKXaHA3TiRb0/ysQdV85R4A6puqO5CIzTvWSUG FEVEtxyXN2pZKREX+p0Y1SREKg7Vv3B+su3JPFJsGiorJYaAy2ZOhWpWuus0wjwZUJ/tL0FGUVlp sSQNrgI2AdWhUNGUx0H6K2D7USJW91prAqrdUEkX6T2F6PSXAeaJXB5UUpRKo8G6IiouSmmblBat VJhWpsTLw7oKKqtA/+vcuIjF4ZIiVvVodUZYV0VlgfpDtrWoup3amYDq0Kj+OCKVlQaXghqrSrQ6 E6zRUP0RohWH6+mMWJ5puoeKWCOnP+1zWhr0tBmkKDVEu2H09Eejlda3ehkthiWULSxwWVijRiqt WC9Jf56ivUkaPDIsHP3JqKRopZ2+WRyoLr+AAFCVo9LaC91RHTFiAVVbVKEHqqPBAqr2qLrdsROB amhUl16vEKguhuoIsIDqgqj2hgVUF0W1JyygujCqvWAB1cVR7QELqAZA1RsWUA2CqicsoBoIVS9Y QDUYqh6wjoKKm58KqE4K64io8gllgarhuO0AeE9UaxZFymEBlXNMnSDloM6IKr9aE6h2ilhHR8XN T+VBxd3uDlSdYFmoYvAtzM2t91cLlTQ/FVCdoMaSUHGrKHDR6m5EKwuVND2jNj+VNpcCUO0IKzoi 1ZoU6IlU38GenlGrqVIBqj9A1Q9WdB4FWiu+r0l/347m592Z/qwJOoDqIDWWlQK9y91+B3mdGm3V B2lVrShEqpdy9AdUnWF5U6AnDXqj1Vcom6DfU1MhUp08YnlRaWv/fRuo7gaqfDlcrVf1E3x3JwNV ZVhRARWYvpXUXrCOAj3pLy/W6QzFgYFlpUBr8rM/QNX/qFBqhkr1lReXhepuoFocqKRphawJOoCq EqxY0Gm3UqGE6uEE9VAaoDT9LQ5YJZOfaRN0DImqRbshGs1Rq8VwZ3pYj0JU3FIiWgp8MfUVnZVY m0nvRwA1LKoeqdCKWlYq5NoPD6WrfjOKdRqx8uVCPJP1c2nPO0fVMKi2wIpGY9SbCmclaknI7gwq aeEj+gZyq0BIEcuDqWSG4mFQ1exjxYJTOWuAadst+/lJwJ6YVMitovVkkD0d0alk+uvLo2rZxyrF dVOOEiVMUhM0Cm8ct/7fywD2CvwqWx5MFqpwVVQtYJV04Gdluwk12C38/5K3k9AI5aKVtLjka+VW umxbCJ0mPjsjrFjYdfdcOjM5sGnbFPhFJbkjQm/kkiB5ZyX2zvt5OVS1+lhB6LpbwDzQtE3696TX l7ImqbRJay4vgV9vec2C3pdHFULba95LgUWja1/ys9JIQmpMCjYNT8nybJct1HvCCo6GaavNO6Qj tGRA1Ja7bbIuDWDtP1Knn8HYGZbnf3Zypqi0IYJgXKDdIPWQNEBbt7jiP4pV29E6rzQlJ0SsemnH A8o6KvNuUpG9GJFKu6qVtj0m8jgzR6aeI9Tg+PhSY67YBA2OdsIsvIFag1TqWU1G0c6dxpEeNbze XpW3Zosj4KoJK5KUZPWpZicuDpQULaTaztuzWla2HQJwtYWlpZpYCMxqjmoRi6JKQsos2dLGaJWY fXdZXDVgeSOZdKmyBik6UAUlFQalxksGoIWBWWtptuj83HCwrDrLqreiAsh6rv2+UNDcTELBr11D 5W1lJCVSDYGrJiwuvJeesuEQlR59eSKXF14Ida9SGAZXLVhSzbD1dI73ZDP3Gqx1j/OvL8G/lO3W k8hD4Jo3/rwVtWrg0mBxv7+k/5aM/ltJHy8BVxtYFiopwkhHlVafzAK9BteWSITIVRGWFjW89x16 fl7qZJccuudFdCqIRMB1AFgh6NdiWd+vAfKkQwleabqMDLIIXH1hBSMdeSJNdMDw/t644uBiy98H XB1gaSktFOILRuTyAvSAjSvAAlcHWKEgCoVKO1ADVdICKakTW5+GuQyuudGOiSt3pBWttqRhb+Ra gxW4OsEKwXeb2NodW/qmR8djSW3WOjWeHtfceKeU4ooVfm90vBZvGowFPwtcjWHVilytcJVA8jRg gasjrKPh2pL2vD0z4NoBllYY91wz0XPEClwHh1W7vVDr6FQ7VQRcJ4EFXIPimjv9HuAaDNfc8XcB 10C45s6/D7gGwTXv8DuBawBc806ggeviuPaCBVwXx7UnLOC6MK69YQHXRXEdARZwXRDXUWCNjKvl 37QbriPBAq4L4ToarNFx1f67dptF8IiwgKstrtaR8tCwgMue4OTQuI4MC7jKjh63gosjwQKu9X9X 2rB/h4A1Iq5SYKnh33lpWKPhslKUVXN5PidNthtHgzV6WmyZEocr3kfG5Ykg2tSW1uRyTVPiGWFd GVfJa04rcdWoyS4L6yq4OFglr7t0JmfPAp1VotaZYV0BV61pkkqW60PEuiguqbbSopeFZykA5kmN m6PWFWCdDVfpFJbaYgZLKF9gVEqJiFgXwmWlv6Tgktb4WRzfU1LQx9Fh7YkrrMAVgj11uJYGFwOS tkaQp/aKiFj744oFuEpeT3LC2ro0XvWC/oqwjo7L+7s96Y1bCu9twPKmRsA6UVr01GVJwcXhkZYg tpAtSg23eR/dLgwrBf5iObrkyb87eMoO2Xu+vs97kIzXq62zXbIKrba6RxTaDqui2JVhHQWXVYgv 4X/rX0fh+0Kotxxf6XqPAbCOHbk8K71O4b/r+NB6qBRYd1AjwToCrmQU5kv479rYMfv6m6mVklIL bVnLEbBOgsvbj8rT4URqnsUoyr3rVAPWBXB5riJITJvglhXf+fe9haM+raWw2wnoEWHtmRaTAGoh UWliaq3P11+/mxea1LNqHtlGhNUDl3VOjutL3X/RzARWIPCeGTAJ2TvY3famqXNUWK1xJQOcFK1u Cqwlw/TMNgvYuyBdev8OwDpYzcXVVXmKu2VHh5EcHebpMIf1Y0SwEkyp8D8KYB0kLZZELK3OejK4 ng5c3VIiYLXDJZ3k5eorGrE4WInUWTmqnwxXCTAJfgKsY+JKjvYClw7zVMhFLC1qPVdGLa0dAlgH w2V12jkoNwNWEo4O81QoRa01hfsmYIDVBlcyelhcYzRHJR0ZJqbgrxG1qtdagNUvLWpHhVy0mgJ/ tcOb4HoKjxSX1qUPyn8EwDpBWkzK0aAXVp4+3wTRi+Aq7WNVOzIErHa4UrBv3aLFewksGrk4ZFwq 9N5viOL9RJGLK97n3zedotJgcZckvwRoVsSqchQIWPvgsuosCVVUjiwXIXpZ17577tRBH+uguDx3 Mi8ZxDeTArkL9LRe2CJgoikQEevEuEIWtaSoM2WwPrhKYFnA1t5PiHbDwXBxY2GanDks7c6aoMDS gL2Zz0vXz1dPgYBVH5d2qxQHbAn67VoSLCtyJeUxtcSUjwgjVfefNgkIhcM956JVVKKLNn9DaZGe AOtcuCg0z72ApbDWTLrWdOpIwGqPS4tg2l3JQYClHWlac2F1QQVYbfdnNJBJ4DzvSxJqLg+mLpPc AlYfXB5gW2GVRqfUaydgtE+NIdSZ2DY5kYWWvSrAOgew0vckGVFsF1CfMeO93x3Y2pEcUaw7KMA6 P7BUiG3XPxRj3/0eK+DaFRRgHRsY9z1pAzTAArIqKRGwMIren4RdgoGBgYGBgYGBgYGBgYGBgYGB gYGBgYGBgVFp/CPAAP/hv7rnRqgGAAAAAElFTkSuQmCC"
           transform="matrix(.24 0 0 .24 6.951 5.79)"/>
    <path opacity=".5" d="M20.73 29.998L35.047 15.68l-3.89-3.89-18.207 18.208 18.21 18.208 3.888-3.89-14.32-14.318z"/>
    <path fill="#fff" d="M19.314 29.998l14.32-14.318-2.475-2.476-16.795 16.794L31.16 46.792l2.474-2.476-14.32-14.318z"/>
</svg>